<svg width="161" height="191" viewBox="0 0 161 191" fill="none" xmlns="http://www.w3.org/2000/svg">
<path d="M14.1588 100.944C18.9688 79.6294 39.1853 22.4553 124.632 19.7891C103.305 33.2668 93.0462 46.3158 90.0832 52.9634C124.293 60.6834 145.766 94.6816 138.044 128.901C130.321 163.12 96.329 184.601 62.1191 176.881C27.9093 169.161 6.43675 135.163 14.1588 100.944Z" fill="#EFEFEF"/>
</svg>
